…
Here is an unnesting that I had tried in my STAT545A assignment that
places each detail about a game is its own observation. To show what has
changed, after unnesting the variable using the function and getting the
return of the entire tibble, I asked r to print the head of the original
and tidied tibble and selected just the unnested variable and the id
variable.

``` r
#using function with `steam_games` dataset variable `game_details`

unnest_and_factor(steam_games, game_details,",")
```

    ## # A tibble: 179,228 × 21
    ##       id url    types name  desc_snippet recent_reviews all_reviews release_date
    ##    <dbl> <chr>  <chr> <chr> <chr>        <chr>          <chr>       <chr>       
    ##  1     1 https… app   DOOM  Now include… Very Positive… Very Posit… May 12, 2016
    ##  2     1 https… app   DOOM  Now include… Very Positive… Very Posit… May 12, 2016
    ##  3     1 https… app   DOOM  Now include… Very Positive… Very Posit… May 12, 2016
    ##  4     1 https… app   DOOM  Now include… Very Positive… Very Posit… May 12, 2016
    ##  5     1 https… app   DOOM  Now include… Very Positive… Very Posit… May 12, 2016
    ##  6     1 https… app   DOOM  Now include… Very Positive… Very Posit… May 12, 2016
    ##  7     1 https… app   DOOM  Now include… Very Positive… Very Posit… May 12, 2016
    ##  8     2 https… app   PLAY… PLAYERUNKNO… Mixed,(6,214)… Mixed,(836… Dec 21, 2017
    ##  9     2 https… app   PLAY… PLAYERUNKNO… Mixed,(6,214)… Mixed,(836… Dec 21, 2017
    ## 10     2 https… app   PLAY… PLAYERUNKNO… Mixed,(6,214)… Mixed,(836… Dec 21, 2017
    ## # … with 179,218 more rows, and 13 more variables: developer <chr>,
    ## #   publisher <chr>, popular_tags <chr>, game_details <fct>, languages <chr>,
    ## #   achievements <dbl>, genre <chr>, game_description <chr>,
    ## #   mature_content <chr>, minimum_requirements <chr>,
    ## #   recommended_requirements <chr>, original_price <dbl>, discount_price <dbl>
…
``` r
#using function with `apt_buildings` dataset variable `parking_type`
unnest_and_factor(apt_buildings, parking_type, ",")
```

    ## # A tibble: 6,978 × 37
    ##       id air_conditioning amenities  balconies barrier_free_acce… bike_parking  
    ##    <dbl> <chr>            <chr>      <chr>     <chr>              <chr>         
    ##  1 10359 NONE             Outdoor r… YES       YES                0 indoor park…
    ##  2 10359 NONE             Outdoor r… YES       YES                0 indoor park…
    ##  3 10360 NONE             Outdoor p… YES       NO                 0 indoor park…
    ##  4 10360 NONE             Outdoor p… YES       NO                 0 indoor park…
    ##  5 10360 NONE             Outdoor p… YES       NO                 0 indoor park…
    ##  6 10361 NONE             <NA>       YES       NO                 Not Available 
    ##  7 10361 NONE             <NA>       YES       NO                 Not Available 
    ##  8 10361 NONE             <NA>       YES       NO                 Not Available 
    ##  9 10362 NONE             <NA>       YES       YES                Not Available 
    ## 10 10362 NONE             <NA>       YES       YES                Not Available 
    ## # … with 6,968 more rows, and 31 more variables: exterior_fire_escape <chr>,
    ## #   fire_alarm <chr>, garbage_chutes <chr>, heating_type <chr>, intercom <chr>,
    ## #   laundry_room <chr>, locker_or_storage_room <chr>, no_of_elevators <dbl>,
    ## #   parking_type <fct>, pets_allowed <chr>, prop_management_company_name <chr>,
    ## #   property_type <chr>, rsn <dbl>, separate_gas_meters <chr>,
    ## #   separate_hydro_meters <chr>, separate_water_meters <chr>,
    ## #   site_address <chr>, sprinkler_system <chr>, visitor_parking <chr>, …
…
Another column with two pieces of information in `apt_buildings`is the
`bike_parking` variable. I thought this might be a good variable to try
using the function on because the separator is not a comma, but the word
“and.” This shows the function can be used with any separator the user
sets, not just a single character. To show what has changed, after
unnesting the variable using the function and getting the return of the
entire tibble, I asked r to print the head of the original and tidied
tibble and selected just the unnested variable and the id variable.

``` r
#using function with `apt_buildings` dataset variable `bike_parking`
unnest_and_factor(apt_buildings, bike_parking, " and ")
```

    ## # A tibble: 4,650 × 37
    ##       id air_conditioning amenities   balconies barrier_free_acce… bike_parking 
    ##    <dbl> <chr>            <chr>       <chr>     <chr>              <fct>        
    ##  1 10359 NONE             Outdoor re… YES       YES                0 indoor par…
    ##  2 10359 NONE             Outdoor re… YES       YES                10 outdoor p…
    ##  3 10360 NONE             Outdoor po… YES       NO                 0 indoor par…
    ##  4 10360 NONE             Outdoor po… YES       NO                 34 outdoor p…
    ##  5 10361 NONE             <NA>        YES       NO                 Not Available
    ##  6 10362 NONE             <NA>        YES       YES                Not Available
    ##  7 10363 NONE             <NA>        NO        NO                 12 indoor pa…
    ##  8 10363 NONE             <NA>        NO        NO                 0 outdoor pa…
    ##  9 10364 NONE             <NA>        NO        NO                 Not Available
    ## 10 10365 NONE             <NA>        NO        YES                Not Available
    ## # … with 4,640 more rows, and 31 more variables: exterior_fire_escape <chr>,
    ## #   fire_alarm <chr>, garbage_chutes <chr>, heating_type <chr>, intercom <chr>,
    ## #   laundry_room <chr>, locker_or_storage_room <chr>, no_of_elevators <dbl>,
    ## #   parking_type <chr>, pets_allowed <chr>, prop_management_company_name <chr>,
    ## #   property_type <chr>, rsn <dbl>, separate_gas_meters <chr>,
    ## #   separate_hydro_meters <chr>, separate_water_meters <chr>,
    ## #   site_address <chr>, sprinkler_system <chr>, visitor_parking <chr>, …
…
